%YAML 1.1
%TAG !u! tag:unity3d.com,2011:
--- !u!114 &11400000
MonoBehaviour:
  m_ObjectHideFlags: 0
  m_CorrespondingSourceObject: {fileID: 0}
  m_PrefabInstance: {fileID: 0}
  m_PrefabAsset: {fileID: 0}
  m_GameObject: {fileID: 0}
  m_Enabled: 1
  m_EditorHideFlags: 0
  m_Script: {fileID: 11500000, guid: c1b0bd4aa8f57994ba7e3ac08759873c, type: 3}
  m_Name: Weapon_Sword
  m_EditorClassIdentifier: 
  nameOfWeapon: Sword
  attack: 3
  cost: 25
